     1                                  global putChar
     2                                  
     3                                  putChar:
     4 00000000 55                      	push ebp
     5 00000001 89E5                    	mov ebp, esp
     6 00000003 60                      	pushad
     7                                  
     8 00000004 B804000000              	mov eax, 4
     9 00000009 BB01000000              	mov ebx, 1
    10 0000000E 8B4D08                  	mov ecx, [ebp + 8]
    11 00000011 BA01000000              	mov edx, 1
    12 00000016 CD80                    	int 80h
    13                                  
    14 00000018 61                      	popad
    15 00000019 89EC                    	mov esp, ebp
    16 0000001B 5D                      	pop ebp
    17 0000001C C3                      	ret
    18                                  
